David Izydorczyk - Predicting the WM22 Part 1
…
  scored[i]   <- temp$scored
  received[i] <- temp$received
}

Lets combine all variables to a new data.frame:

Code

country_stats <- tibble("country" = countries,scored,received) %>%
                    arrange(desc(scored))
country_stats

# A tibble: 183 x 3
   country     scored received
   <chr>        <dbl>    <dbl>
 1 Japan           58        6
 2 Kanada          50        8
 3 Iran            49        8
 4 Australien      43       11
 5 Brasilien       40        5
 6 China           39       22
 7 England         39        3
 8 Panama          36       20
 9 Deutschland     36        4
10 Südkorea        35        4
# ... with 173 more rows
…
